Sentiment analysis – MiniProject3
…
Romance Bigrams

Lastly, just for fun, we can see the different bigrams in the romance novels.

book_twowords <- romance |>
  mutate(linenumber = row_number()) |>
  ungroup() |>
  unnest_tokens(bigram, text, token = "ngrams", n = 2) |>
  filter(bigram != "NA")
 
book_twowords |>
  count(bigram, sort = TRUE)

# A tibble: 123,126 × 2
   bigram     n
   <chr>  <int>
 1 of the  1246
 2 in the   969
 3 to be    740
 4 to the   664
 5 it was   624
 6 i am     620
 7 i had    535
 8 i was    526
 9 it is    501
10 i have   481
# ℹ 123,116 more rows
…
